<svg width="16" height="16" viewBox="0 0 16 16" fill="none" xmlns="http://www.w3.org/2000/svg">
<path d="M8.03125 0C3.63719 0 0 3.57469 0 7.96875C0 12.3628 3.63719 16 8.03125 16C12.4253 16 16 12.3628 16 7.96875C16 3.57469 12.4253 0 8.03125 0ZM8.03125 13.6562C7.51437 13.6562 7.09375 13.2356 7.09375 12.7188C7.09375 12.2019 7.51437 11.7812 8.03125 11.7812C8.54781 11.7812 8.96875 12.2019 8.96875 12.7188C8.96875 13.2356 8.54781 13.6562 8.03125 13.6562ZM9.69281 7.89406C9.22531 8.2375 8.96875 9.14469 8.96875 9.5975V9.84375C8.96875 10.3606 8.54781 10.7812 8.03125 10.7812C7.51437 10.7812 7.09375 10.3606 7.09375 9.84375V9.5975C7.09375 8.54594 7.63687 7.07625 8.58469 6.38219C9.31281 5.8475 8.93469 4.6875 8.03125 4.6875C7.51437 4.6875 7.09375 5.10812 7.09375 5.625C7.09375 6.14188 6.67281 6.5625 6.15625 6.5625C5.63937 6.5625 5.21875 6.14188 5.21875 5.625C5.21875 4.07406 6.48031 2.8125 8.03125 2.8125C9.58219 2.8125 10.8438 4.07406 10.8438 5.625C10.8438 6.51781 10.4134 7.36594 9.69281 7.89406Z" fill="#FCC400"/>
</svg>
