<svg width="38" height="35" viewBox="0 0 38 35" fill="none" xmlns="http://www.w3.org/2000/svg">
<rect width="37.5" height="35" rx="6.25" fill="#6C5A55"/>
<g clip-path="url(#clip0)">
<path d="M13.1753 10H24.3247C25.3835 10 26.2498 10.7839 26.2498 11.9252V23.0749C26.2498 24.2161 25.3835 25 24.3247 25H13.1753C12.1162 25 11.25 24.2161 11.25 23.0749V11.9252C11.25 10.7839 12.1162 10 13.1753 10ZM22.1768 11.6666C21.8054 11.6666 21.5018 11.9703 21.5018 12.3419V13.9583C21.5018 14.3297 21.8054 14.6336 22.1768 14.6336H23.8722C24.2437 14.6336 24.5476 14.3297 24.5476 13.9583V12.3419C24.5476 11.9703 24.2437 11.6666 23.8722 11.6666H22.1768ZM24.5546 16.3434H23.2344C23.3594 16.7513 23.427 17.1833 23.427 17.6302C23.427 20.1252 21.3392 22.1477 18.7642 22.1477C16.1895 22.1477 14.102 20.1252 14.102 17.6302C14.102 17.183 14.1695 16.7511 14.2945 16.3434H12.9169V22.6797C12.9169 23.0075 13.1852 23.276 13.5132 23.276H23.9586C24.2867 23.276 24.5549 23.0077 24.5549 22.6797V16.3434H24.5546ZM18.7641 14.5484C17.1005 14.5484 15.7516 15.8552 15.7516 17.4674C15.7516 19.0796 17.1005 20.3864 18.7641 20.3864C20.4279 20.3864 21.7769 19.0796 21.7769 17.4674C21.7769 15.8552 20.428 14.5484 18.7641 14.5484Z" fill="white"/>
</g>
<defs>
<clipPath id="clip0">
<rect x="11.25" y="10" width="15" height="15" fill="white"/>
</clipPath>
</defs>
</svg>
